{
	"BugZilla" : {
		
		"model" : "BugZillaSource",

		"login" : {},

		"get" : {
			"url" : "QLineEdit",
			"api_key" : "QLineEdit"
		},

		"post" : {
			"product" : "QLineEdit",
			"component" : "QLineEdit",
			"version" : "QLineEdit"
		}

	},

	"CalDav Server" : {
		
		"model" : "CalDavSource",

		"login" : {
			"url" : "QLineEdit",
			"username" : "QLineEdit",
			"password" : "QPasswordLineEdit"
		},

		"get" : {
			"name" : "QLineEdit"
		},

		"post" : {
		}

	},

	"Redmine API" : {
		
		"model" : "RedmineSource",

		"login" : {
			"url" : "QLineEdit",
			"username" : "QLineEdit",
			"password" : "QPasswordLineEdit",
			"api_key" : "QLineEdit"
		},

		"get" : {
			"identifier" : "QLineEdit"
		},

		"post" : {
		}

	}

}